# Blender3D v249 OBJ File: carrier.blend
# www.blender3d.org
mtllib carrier.mtl
v 0.000000 -0.855227 -2.565681
v 0.000000 -0.855227 2.565681
v -6.172728 -0.855227 2.565680
v -6.172725 -0.855227 -2.565681
v 0.000001 0.855227 -2.565679
v -0.000001 0.855227 2.565682
v -6.172729 0.855227 2.565680
v -6.172726 0.855227 -2.565681
v -1.500000 -0.855227 2.565680
v 0.000000 -1.000000 0.000000
v -1.499999 -0.855227 -2.565681
v -6.172726 -1.000000 -0.000001
v -0.000000 1.000000 0.000002
v -1.500003 0.855227 2.565681
v -6.172728 1.000000 -0.000001
v -1.499998 0.855227 -2.565680
v -0.000000 0.000000 3.000001
v 0.000000 -0.000000 -2.999999
v -6.172728 0.000000 2.999999
v -6.172725 -0.000000 -3.000001
v -1.500000 -1.000000 -0.000000
v -1.500001 0.000000 6.000000
v -7.172726 -0.000000 -0.000001
v -1.500000 -0.000000 -6.000000
v -0.500000 -0.855227 2.565680
v -3.586364 -0.855227 2.565680
v 0.000000 -1.000000 -1.500000
v 0.000000 -1.000000 1.500000
v -0.500000 -0.855227 -2.565681
v -3.586361 -0.855227 -2.565681
v -6.172726 -1.000000 1.499999
v -6.172725 -1.000000 -1.500001
v 0.000000 1.000000 -1.499998
v -0.000000 1.000000 1.500002
v -0.500001 0.855227 2.565681
v -3.586365 0.855227 2.565680
v -6.172728 1.000000 1.499999
v -6.172726 1.000000 -1.500000
v -0.500000 0.855227 -2.565680
v -3.586362 0.855227 -2.565681
v -0.000000 -0.500000 3.000000
v -0.000000 0.500000 3.000001
v 0.000000 -0.500000 -3.000000
v 0.000000 0.500000 -2.999999
v -6.172728 -0.500000 2.999999
v -6.172728 0.500000 2.999999
v -6.172725 -0.500000 -3.000001
v -6.172726 0.500000 -3.000000
v -1.500000 -1.000000 1.500000
v -0.500000 -1.000000 -0.000000
v -1.499999 -1.000000 -1.500000
v -3.586363 -1.000000 -0.000001
v -3.586364 1.000000 -0.000000
v -1.500000 1.000000 -1.500000
v -0.500000 1.000000 0.000001
v -1.500002 1.000000 1.500000
v 7.000000 0.500000 0.000001
v 7.000000 -0.000000 -1.499999
v 7.000000 -0.500000 0.000000
v 7.000000 0.000000 1.500000
v -1.500002 0.500000 3.000000
v -0.500000 0.000000 3.000000
v -1.500001 -0.500000 3.000000
v -3.586364 0.000000 3.000000
v -8.172726 0.500000 -0.000001
v -8.172728 0.000000 1.499999
v -8.172726 -0.500000 -0.000001
v -8.172726 -0.000000 -1.500001
v -1.499999 -0.500000 -3.000000
v -0.500000 -0.000000 -3.000000
v -1.499999 0.500000 -3.000000
v -3.586361 -0.000000 -3.000000
v -0.500000 -1.000000 1.500000
v -0.500000 -1.000000 -1.500000
v -3.586363 -1.000000 1.500000
v -3.586362 -1.000000 -1.500001
v -3.586363 1.000000 -1.500000
v -0.500000 1.000000 -1.499999
v -3.586365 1.000000 1.500000
v -0.500000 1.000000 1.500001
v 7.000000 0.500000 -1.499999
v 7.000000 -0.500000 -1.500000
v 7.000000 0.500000 1.500001
v 7.000000 -0.500000 1.500000
v -0.500000 0.500000 3.000001
v -0.500000 -0.500000 3.000000
v -3.586365 0.500000 3.000000
v -3.586364 -0.500000 3.000000
v -8.172728 0.500000 1.499999
v -8.172726 -0.500000 1.499999
v -8.172726 0.500000 -1.500001
v -8.172726 -0.500000 -1.500001
v -0.500000 -0.500000 -3.000000
v -0.500000 0.500000 -3.000000
v -3.586361 -0.500000 -3.000001
v -3.586362 0.500000 -3.000000
v -0.905019 1.185000 0.352311
v -2.104831 1.185000 0.352311
v -0.905018 1.185000 -0.352310
v -2.104830 1.185000 -0.352311
v -1.389893 1.185000 0.352311
v -0.655019 1.185000 0.000000
v -1.389893 1.185000 -0.352311
v -2.104831 1.185000 0.000000
v -1.296143 1.372500 -0.446060
v -0.467519 1.372500 0.000000
v -1.296143 1.372500 0.446061
v -2.104830 1.372500 -0.446060
v -0.561268 1.372500 -0.446060
v -2.104831 1.372500 0.446061
v -0.561269 1.372500 0.446061
v -0.655019 1.560000 0.352311
v -2.104831 1.560000 0.352311
v -0.655018 1.560000 -0.352310
v -2.104830 1.560000 -0.352311
v -1.389893 1.560000 0.352311
v -0.655019 1.560000 0.000000
v -1.389893 1.560000 -0.352311
v -2.104831 1.560000 0.000000
v -1.389893 1.560000 0.000000
v -2.604831 1.372500 -0.223030
v -2.604831 1.372500 0.223030
v -1.500001 0.125000 3.000000
v -1.500001 -0.125000 3.000000
v -0.500000 0.250000 3.000000
v -0.500000 -0.250000 3.000000
v -3.586365 0.250000 3.000000
v -3.586364 -0.250000 3.000000
v -1.500000 -0.125000 -3.000000
v -1.500000 0.125000 -3.000000
v -0.500000 -0.250000 -3.000000
v -0.500000 0.250000 -3.000000
v -3.586361 -0.250000 -3.000000
v -3.586362 0.250000 -3.000000
v -8.172726 0.250000 -0.000001
v -8.172726 -0.250000 -0.000001
v -8.172727 0.125000 0.374999
v -8.172727 -0.125000 0.374999
v -8.172726 0.125000 -0.375001
v -8.172726 -0.125000 -0.375001
v -8.172727 0.000000 0.374999
v -8.172726 -0.000000 -0.375001
v -7.172727 0.125000 0.187499
v -7.172727 -0.125000 0.187499
v -7.172726 0.125000 -0.187501
v -7.172726 -0.125000 -0.187501
v 6.511539 -0.176776 0.883884
v 6.511539 -0.207866 0.694463
v 6.511539 -0.230969 0.478355
v 6.511539 -0.245195 0.243863
v 6.511539 -0.249999 0.000001
v 6.511539 -0.245195 -0.243862
v 6.511539 -0.230969 -0.478354
v 6.511539 -0.207866 -0.694462
v 6.511539 -0.176776 -0.883883
v 6.511539 -0.138892 -1.039337
v 6.511539 -0.095670 -1.154849
v 6.511539 -0.048772 -1.225981
v 6.511539 0.000001 -1.249999
v 6.511539 0.048774 -1.225981
v 6.511539 0.095672 -1.154849
v 6.511539 0.138894 -1.039336
v 6.511539 0.176778 -0.883883
v 6.511539 0.207868 -0.694462
v 6.511539 0.230971 -0.478353
v 6.511539 0.245197 -0.243861
v 6.511539 0.250001 0.000002
v 6.511539 0.245197 0.243865
v 6.511539 0.230971 0.478356
v 6.511539 0.207868 0.694465
v 6.511539 0.176777 0.883885
v 6.511539 0.138893 1.039338
v 6.511539 0.095672 1.154851
v 6.511539 0.048773 1.225982
v 6.511539 0.000001 1.250000
v 6.511539 -0.048772 1.225982
v 6.511539 -0.095670 1.154849
v 6.511539 -0.138892 1.039336
v -0.988462 -0.176777 0.883882
v -0.988462 -0.207868 0.694461
v -0.988461 -0.230970 0.478352
v -0.988461 -0.245197 0.243860
v -0.988461 -0.250000 -0.000003
v -0.988461 -0.245196 -0.243865
v -0.988461 -0.230970 -0.478356
v -0.988461 -0.207867 -0.694464
v -0.988461 -0.176777 -0.883884
v -0.988461 -0.138893 -1.039337
v -0.988461 -0.095671 -1.154849
v -0.988461 -0.048773 -1.225981
v -0.988461 -0.000000 -1.250000
v -0.988461 0.048772 -1.225982
v -0.988461 0.095670 -1.154850
v -0.988460 0.138892 -1.039338
v -0.988461 0.176776 -0.883886
v -0.988461 0.207867 -0.694466
v -0.988461 0.230969 -0.478358
v -0.988461 0.245196 -0.243867
v -0.988461 0.250000 -0.000005
v -0.988461 0.245196 0.243857
v -0.988461 0.230970 0.478349
v -0.988461 0.207868 0.694457
v -0.988461 0.176778 0.883878
v -0.988461 0.138894 1.039333
v -0.988461 0.095672 1.154846
v -0.988461 0.048774 1.225980
v -0.988461 0.000002 1.250000
v -0.988461 -0.048771 1.225984
v -0.988461 -0.095669 1.154853
v -0.988462 -0.138891 1.039343
v -0.988461 -0.000000 -0.000000
v 7.011539 -0.500291 1.221999
v 7.011539 -0.500563 0.888454
v 7.011539 -0.500598 0.604938
v 7.011539 -0.500195 0.295554
v 7.011539 -0.500358 -0.000523
v 7.011539 -0.500195 -0.291885
v 7.011539 -0.500598 -0.564070
v 7.011539 -0.500563 -0.833440
v 7.011539 -0.500292 -1.067437
v 7.011539 -0.500598 -1.500375
v 7.011539 -0.238747 -1.500172
v 7.011539 -0.100275 -1.500115
v 7.011539 -0.000520 -1.500207
v 7.011539 0.095615 -1.500349
v 7.011539 0.190256 -1.500209
v 7.011539 0.499871 -1.500215
v 7.011539 0.499861 -1.134199
v 7.011539 0.499944 -0.869343
v 7.011539 0.499864 -0.596115
v 7.011539 0.499904 -0.305545
v 7.011539 0.499998 -0.000341
v 7.011539 0.500075 0.294679
v 7.011539 0.500035 0.574036
v 7.011539 0.500115 0.900010
v 7.011539 0.500032 1.243697
v 7.011539 0.500004 1.499901
v 7.011539 0.217605 1.500436
v 7.011539 0.097411 1.500560
v 7.011539 -0.000689 1.500628
v 7.011539 -0.100167 1.500559
v 7.011539 -0.191423 1.500434
v 7.011539 -0.500036 1.500296
vt 0.110322 0.853450
vt 0.110415 0.827552
vt 0.120680 0.853998
vt 0.125782 0.854892
vt 0.132895 0.827575
vt 0.145240 0.854875
vt 0.157531 0.827552
vt 0.164698 0.854857
vt 0.010561 0.911296
vt 0.020919 0.910748
vt 0.010653 0.937193
vt 0.000208 0.910811
vt 0.759691 0.872931
vt 0.787373 0.879982
vt 0.759689 0.892143
vt 0.787371 0.904307
vt 0.759687 0.911356
vt 0.099969 0.853935
vt 0.871414 0.415292
vt 0.857688 0.388123
vt 0.885303 0.388207
vt 0.885221 0.415333
vt 0.857606 0.415250
vt 0.843799 0.415208
vt 0.830074 0.388039
vt 0.829992 0.415166
vt 0.870907 0.582737
vt 0.884291 0.723098
vt 0.856676 0.723014
vt 0.857100 0.582695
vt 0.884715 0.582779
vt 0.843293 0.582654
vt 0.829061 0.722931
vt 0.829485 0.582612
vt 0.901517 0.408131
vt 0.915406 0.435216
vt 0.887792 0.435300
vt 0.887710 0.408173
vt 0.915324 0.408089
vt 0.929132 0.408047
vt 0.943021 0.435132
vt 0.942939 0.408006
vt 0.901011 0.240686
vt 0.886779 0.100408
vt 0.914394 0.100325
vt 0.914818 0.240644
vt 0.887203 0.240727
vt 0.928626 0.240602
vt 0.942009 0.100241
vt 0.942433 0.240560
vt 0.850539 0.469482
vt 0.864346 0.469524
vt 0.331598 0.827552
vt 0.279315 0.982791
vt 0.169952 0.946862
vt 0.501355 0.827407
vt 0.663100 0.946585
vt 0.553754 0.982610
vt 0.501407 0.999854
vt 0.331691 1.000000
vt 0.922064 0.353815
vt 0.990323 0.995786
vt 0.938233 0.840482
vt 0.990631 0.823339
vt 0.828826 0.876280
vt 0.908257 0.353857
vt 0.331691 0.999854
vt 0.384117 0.844662
vt 0.493457 0.880705
vt 0.331775 0.827407
vt 0.972068 0.721007
vt 0.999492 0.659574
vt 0.978971 0.720986
vt 0.971877 0.659658
vt 0.965164 0.721028
vt 0.944262 0.659741
vt 0.972195 0.761906
vt 0.979098 0.761885
vt 1.000000 0.823172
vt 0.972385 0.823255
vt 0.944771 0.823339
vt 0.965291 0.761927
vt 0.079051 0.882130
vt 0.089411 0.827554
vt 0.099762 0.882087
vt 0.759687 0.926151
vt 0.752631 0.872952
vt 0.759535 0.872931
vt 0.745880 0.926193
vt 0.745727 0.872973
vt 0.818490 0.927483
vt 0.808083 0.872931
vt 0.828795 0.872942
vt 0.670003 0.926172
vt 0.677059 0.872973
vt 0.676907 0.926193
vt 0.068700 0.827552
vt 0.058339 0.882083
vt 0.797779 0.927502
vt 0.787373 0.872979
vt 0.663252 0.872931
vt 0.663100 0.926151
vt 0.697475 0.883177
vt 0.690540 0.893380
vt 0.690603 0.872931
vt 0.704347 0.893422
vt 0.704411 0.872973
vt 0.958067 0.500843
vt 0.949204 0.452473
vt 0.947295 0.462770
vt 0.945799 0.474530
vt 0.944775 0.487301
vt 0.944262 0.500592
vt 0.944280 0.513893
vt 0.944827 0.526693
vt 0.945883 0.538499
vt 0.947407 0.548858
vt 0.949341 0.557372
vt 0.951610 0.563713
vt 0.954128 0.567639
vt 0.956797 0.568997
vt 0.959514 0.567737
vt 0.962176 0.563905
vt 0.964680 0.557651
vt 0.966930 0.549213
vt 0.968840 0.538916
vt 0.970335 0.527156
vt 0.971359 0.514385
vt 0.971872 0.501094
vt 0.971855 0.487793
vt 0.971308 0.474993
vt 0.970252 0.463187
vt 0.968728 0.452828
vt 0.966794 0.444314
vt 0.964524 0.437973
vt 0.962007 0.434047
vt 0.959338 0.432688
vt 0.956621 0.433949
vt 0.953958 0.437780
vt 0.951454 0.444035
vt 0.803366 0.027409
vt 0.828826 0.000015
vt 0.813456 0.000013
vt 0.794781 0.027394
vt 0.738154 0.901348
vt 0.745727 0.883279
vt 0.732347 0.904864
vt 0.732286 0.872931
vt 0.975928 0.025664
vt 0.972996 0.000059
vt 0.967956 0.000074
vt 0.973340 0.025280
vt 0.978621 0.025788
vt 0.978490 0.000043
vt 0.981316 0.025648
vt 0.983908 0.000026
vt 0.983908 0.025248
vt 0.990546 0.000005
vt 0.058339 0.859468
vt 0.058313 0.827552
vt 0.046029 0.837041
vt 0.052521 0.855970
vt 0.794744 0.845468
vt 0.814645 0.872793
vt 0.803330 0.845451
vt 0.828795 0.872781
vt 0.784283 0.845485
vt 0.795663 0.872811
vt 0.772348 0.845501
vt 0.777660 0.872827
vt 0.759397 0.845517
vt 0.762231 0.872841
vt 0.745928 0.845530
vt 0.745937 0.872856
vt 0.732460 0.845541
vt 0.729081 0.872871
vt 0.719509 0.845549
vt 0.713033 0.872885
vt 0.707573 0.845554
vt 0.697942 0.872899
vt 0.697111 0.845556
vt 0.683315 0.872912
vt 0.688525 0.845555
vt 0.663100 0.872931
vt 0.684676 0.876447
vt 0.677059 0.894467
vt 0.690483 0.872931
vt 0.690540 0.904855
vt 0.960077 0.407024
vt 0.962729 0.432631
vt 0.967956 0.432616
vt 0.962671 0.407409
vt 0.957382 0.406900
vt 0.957419 0.432648
vt 0.954689 0.407041
vt 0.951910 0.432665
vt 0.952104 0.407441
vt 0.944262 0.432688
vt 0.046956 0.859468
vt 0.046972 0.891424
vt 0.058339 0.882595
vt 0.052774 0.862966
vt 0.697147 0.027386
vt 0.687011 0.000002
vt 0.688562 0.027399
vt 0.663100 0.000000
vt 0.707609 0.027375
vt 0.699934 0.000003
vt 0.719544 0.027368
vt 0.714812 0.000005
vt 0.732495 0.027364
vt 0.729844 0.000006
vt 0.745964 0.027364
vt 0.745936 0.000007
vt 0.759432 0.027366
vt 0.762288 0.000009
vt 0.772383 0.027373
vt 0.779375 0.000010
vt 0.784319 0.027382
vt 0.795034 0.000012
vt 0.794743 0.436381
vt 0.803330 0.436395
vt 0.809746 0.027425
vt 0.809709 0.436412
vt 0.813675 0.027442
vt 0.813638 0.436429
vt 0.977227 0.432564
vt 0.979920 0.432688
vt 0.982614 0.432548
vt 0.809709 0.845435
vt 0.813637 0.845420
vt 0.813258 0.436429
vt 0.809329 0.436444
vt 0.802950 0.436460
vt 0.794365 0.436476
vt 0.783903 0.436493
vt 0.771968 0.436510
vt 0.759017 0.436525
vt 0.745549 0.436538
vt 0.732080 0.436549
vt 0.719129 0.436558
vt 0.707193 0.436563
vt 0.696732 0.436565
vt 0.688146 0.436564
vt 0.682145 0.845551
vt 0.681765 0.436559
vt 0.678216 0.845543
vt 0.677836 0.436551
vt 0.958847 0.000124
vt 0.956151 0.000000
vt 0.953459 0.000141
vt 0.682182 0.027414
vt 0.678254 0.027430
vt 0.678217 0.436417
vt 0.682145 0.436400
vt 0.688525 0.436385
vt 0.697110 0.436372
vt 0.707572 0.436362
vt 0.719507 0.436355
vt 0.732458 0.436351
vt 0.745926 0.436350
vt 0.759395 0.436353
vt 0.772346 0.436359
vt 0.784282 0.436369
vt 0.944516 0.741540
vt 0.958324 0.741498
vt 0.999746 0.741373
vt 0.985938 0.741415
vt 0.942775 0.353752
vt 0.887546 0.353920
vt 0.829827 0.469419
vt 0.885057 0.469587
vt 0.145313 0.933936
vt 0.145276 0.893862
vt 0.164771 0.933918
vt 0.164734 0.893844
vt 0.125855 0.933954
vt 0.125818 0.893879
vt 0.110182 0.897324
vt 0.120557 0.892786
vt 0.110055 0.937193
vt 0.120429 0.932655
vt 0.145321 0.944116
vt 0.120680 0.939026
vt 0.010421 0.867422
vt 0.020795 0.871960
vt 0.010293 0.827552
vt 0.020668 0.832091
vt 0.169952 0.938981
vt 0.045014 0.832667
vt 0.031206 0.851879
vt 0.026099 0.827552
vt 0.020919 0.851877
vt 0.000084 0.872023
vt 0.000000 0.845717
vt 0.045011 0.871092
vt 0.026094 0.876202
vt 0.099762 0.919029
vt 0.099845 0.892723
vt 0.083086 0.364148
vt 0.082980 0.250374
vt 0.146444 0.331152
vt 0.146480 0.370139
vt 0.165825 0.250299
vt 0.165902 0.331135
vt 0.083136 0.418680
vt 0.146504 0.396581
vt 0.165981 0.418605
vt 0.165975 0.410196
vt 0.248669 0.250224
vt 0.185360 0.331117
vt 0.248775 0.363998
vt 0.185396 0.370104
vt 0.248826 0.418530
vt 0.185420 0.396545
vt 0.639111 0.381613
vt 0.580253 0.381555
vt 0.663100 0.381743
vt 0.580290 0.000015
vt 0.024303 0.445965
vt 0.083162 0.445946
vt 0.000312 0.445902
vt 0.083511 0.827552
vt 0.024122 0.250393
vt 0.000131 0.250330
vt 0.023991 0.109353
vt 0.000000 0.109289
vt 0.024227 0.364167
vt 0.000236 0.364104
vt 0.331703 0.577284
vt 0.355689 0.577158
vt 0.355676 0.718196
vt 0.331691 0.718322
vt 0.331714 0.463511
vt 0.355699 0.463385
vt 0.024278 0.418699
vt 0.000287 0.418636
vt 0.331719 0.408979
vt 0.355704 0.408853
vt 0.331721 0.381714
vt 0.355707 0.381588
vt 0.414533 0.718149
vt 0.414525 0.827393
vt 0.886544 0.000167
vt 0.914159 0.000084
vt 0.497378 0.718156
vt 0.497370 0.827400
vt 0.941774 0.000000
vt 0.082743 0.000150
vt 0.082849 0.109334
vt 0.165588 0.000075
vt 0.165694 0.109259
vt 0.580222 0.718164
vt 0.580215 0.827407
vt 0.639080 0.718221
vt 0.663069 0.718351
vt 0.828826 0.823172
vt 0.856441 0.823255
vt 0.248433 0.000000
vt 0.248539 0.109184
vt 0.884055 0.823339
vt 0.331378 0.108989
vt 0.307394 0.109096
vt 0.639093 0.577183
vt 0.663082 0.577313
vt 0.639103 0.463410
vt 0.663092 0.463540
vt 0.331509 0.250030
vt 0.307525 0.250136
vt 0.331615 0.363804
vt 0.307631 0.363910
vt 0.639108 0.408878
vt 0.663097 0.409009
vt 0.331665 0.418336
vt 0.307681 0.418443
vt 0.331691 0.445602
vt 0.307707 0.445709
vt 0.831315 0.000000
vt 0.858929 0.000084
vt 0.497408 0.381548
vt 0.497445 0.000007
vt 0.249200 0.827402
vt 0.248851 0.445797
vt 0.166355 0.827478
vt 0.166006 0.445872
vt 0.414564 0.381541
vt 0.414600 0.000000
vt 0.916647 0.823255
vt 0.889033 0.823339
vt 0.944262 0.823172
vt 0.414546 0.577111
vt 0.497390 0.577118
vt 0.414556 0.463338
vt 0.497401 0.463345
vt 0.580235 0.577125
vt 0.580245 0.463353
vt 0.414561 0.408806
vt 0.497406 0.408814
vt 0.580250 0.408821
vn -0.370565 0.415375 -0.830750
vn -0.351123 0.936329 -0.000000
vn -0.351124 0.936329 -0.000000
vn -0.370565 0.415375 0.830750
vn -0.370565 -0.415375 0.830750
vn -0.351124 -0.936329 -0.000000
vn -0.351123 -0.936329 -0.000000
vn -0.370565 -0.415375 -0.830750
vn -0.000001 -0.000001 1.000000
vn -0.000000 -0.000000 1.000000
vn -0.000001 -0.000000 1.000000
vn -0.000000 -0.000002 1.000000
vn 0.000000 0.000000 -1.000000
vn 0.000000 0.000001 -1.000000
vn 0.000001 0.000000 -1.000000
vn -0.059754 0.997348 0.041556
vn -0.059754 -0.997348 0.041556
vn 0.123929 -0.991431 0.041310
vn -0.000001 -0.000002 1.000000
vn 0.123929 0.991431 0.041310
vn 0.123929 0.991431 -0.041310
vn -0.059754 0.997348 -0.041556
vn -0.059754 -0.997348 -0.041556
vn 0.123929 -0.991431 -0.041310
vn -1.000000 0.000000 -0.000001
vn -1.000000 0.000000 0.000001
vn -1.000000 -0.000004 -0.000001
vn -1.000000 0.000000 0.000000
vn -0.059189 -0.947020 -0.315673
vn -0.184289 0.000000 -0.982872
vn -0.059189 0.947020 -0.315674
vn -0.184289 -0.000000 0.982872
vn -0.059189 -0.947020 0.315673
vn -0.059189 0.947020 0.315673
vn -0.124035 0.992278 -0.000000
vn -1.000000 0.000002 -0.000001
vn -1.000000 -0.000002 -0.000001
vn -0.124035 -0.992278 -0.000000
vn -1.000000 0.000000 -0.000003
vn 1.000000 -0.000001 0.000000
vn 1.000000 -0.000000 0.000000
vn 1.000000 -0.000002 0.000001
vn 1.000000 0.000001 0.000000
vn 1.000000 0.000005 -0.000000
vn 1.000000 -0.000005 -0.000000
vn 1.000000 -0.000009 -0.000000
vn 1.000000 0.000002 0.000001
vn 1.000000 -0.000002 0.000000
vn 1.000000 -0.000003 0.000001
vn 1.000000 0.000004 -0.000000
vn 1.000000 -0.000008 -0.000001
vn 1.000000 0.000003 0.000001
vn 0.585976 0.810328 -0.000744
vn 0.619292 0.762835 -0.185903
vn 0.388467 0.863027 -0.322921
vn 0.677949 0.000329 -0.735109
vn 0.481444 0.001196 -0.876476
vn 0.475374 0.734508 -0.484270
vn 0.448112 0.000620 -0.893977
vn 0.473830 0.389054 -0.790014
vn 0.472166 -0.389439 -0.790820
vn 0.448110 -0.000620 -0.893978
vn 0.504331 -0.720921 -0.475314
vn 0.481418 -0.000907 -0.876491
vn 0.678047 -0.001390 -0.735017
vn 0.425821 -0.847427 -0.317088
vn 0.623986 -0.759216 -0.185022
vn 0.585543 -0.810641 -0.000087
vn 0.541057 -0.829882 -0.136214
vn 0.543029 -0.839714 -0.000204
vn 0.485553 -0.869255 -0.092924
vn 0.504553 -0.863381 0.000213
vn 0.457832 -0.887407 -0.053838
vn 0.473891 -0.880583 -0.000124
vn 0.447130 -0.894295 -0.017616
vn 0.454134 -0.890933 0.000232
vn 0.453938 -0.891033 0.000275
vn 0.447149 -0.894286 0.017616
vn 0.473661 -0.880707 0.000119
vn 0.458516 -0.887055 0.053817
vn 0.504332 -0.863510 -0.000252
vn 0.488454 -0.867646 0.092753
vn 0.542816 -0.839852 0.000264
vn 0.534905 -0.833756 0.136849
vn 0.585335 -0.810792 -0.000023
vn 0.598115 -0.778622 0.189751
vn 0.386629 -0.863751 0.323191
vn 0.677750 0.000014 0.735292
vn 0.481161 -0.001302 0.876631
vn 0.473874 -0.735186 0.484712
vn 0.447511 0.001323 0.894278
vn 0.470818 -0.389762 0.791464
vn 0.473353 0.389161 0.790247
vn 0.447511 0.000825 0.894278
vn 0.526364 0.709859 0.468019
vn 0.480723 -0.000363 0.876873
vn 0.677660 -0.000569 0.735375
vn 0.454353 0.834329 0.312182
vn 0.581921 0.790121 0.192553
vn 0.585777 0.810472 -0.000574
vn 0.528584 0.837672 0.137492
vn 0.543486 0.839417 0.000974
vn 0.484888 0.869621 0.092965
vn 0.505220 0.862991 0.000114
vn 0.457766 0.887441 0.053840
vn 0.474470 0.880271 -0.001303
vn 0.447673 0.894024 0.017611
vn 0.454364 0.890816 0.000499
vn 0.454366 0.890815 -0.000491
vn 0.447644 0.894039 -0.017611
vn 0.474418 0.880299 0.001146
vn 0.458078 0.887281 -0.053831
vn 0.505227 0.862986 -0.000107
vn 0.490667 0.866410 -0.092621
vn 0.543561 0.839370 -0.000683
vn 0.539355 0.830960 -0.136390
vn -0.000000 0.971565 -0.236773
vn -0.000000 0.971566 -0.236771
vn -0.000000 0.936584 -0.350444
vn -0.000000 0.936581 -0.350451
vn 0.000000 0.834875 -0.550439
vn -0.000000 0.834867 -0.550452
vn -0.000000 0.441797 -0.897115
vn 0.000000 0.441766 -0.897130
vn -0.000000 -0.441786 -0.897120
vn 0.000000 -0.441819 -0.897104
vn 0.000000 -0.834872 -0.550444
vn 0.000000 -0.834880 -0.550433
vn 0.000000 -0.936583 -0.350446
vn 0.000000 -0.936585 -0.350440
vn 0.000000 -0.971565 -0.236772
vn 0.000000 -0.971566 -0.236768
vn 0.000000 -0.986796 -0.161969
vn 0.000000 -0.986796 -0.161967
vn 0.000000 -0.994334 -0.106297
vn 0.000000 -0.994335 -0.106295
vn 0.000000 -0.998165 -0.060558
vn 0.000000 -0.998165 -0.060557
vn 0.000000 -0.999806 -0.019695
vn 0.000000 -0.999806 -0.019694
vn 0.000000 -0.999806 0.019695
vn 0.000000 -0.998165 0.060558
vn 0.000000 -0.998165 0.060559
vn 0.000000 -0.994334 0.106296
vn 0.000000 -0.994334 0.106297
vn 0.000000 -0.986796 0.161968
vn 0.000000 -0.986796 0.161969
vn 0.000000 -0.971565 0.236771
vn 0.000000 -0.971565 0.236772
vn 0.000000 -0.936583 0.350445
vn 0.000000 -0.936583 0.350446
vn 0.000000 -0.834874 0.550441
vn 0.000000 -0.834872 0.550444
vn -0.000000 -0.441792 0.897118
vn 0.000000 -0.441787 0.897120
vn -0.000000 0.441790 0.897118
vn -0.000000 0.441794 0.897116
vn -0.000000 0.834873 0.550443
vn -0.000000 0.834874 0.550442
vn -0.000000 0.936583 0.350445
vn -0.000000 0.971565 0.236771
vn -0.000000 0.986796 0.161968
vn -0.000000 0.986796 0.161969
vn -0.000000 0.994335 0.106296
vn -0.000000 0.994334 0.106297
vn -0.000000 0.998165 0.060558
vn -0.000000 0.999806 0.019694
vn -0.000000 0.999806 0.019695
vn -0.000000 0.999806 -0.019694
vn -0.000000 0.998165 -0.060558
vn -0.000000 0.994335 -0.106297
vn -0.000000 0.994335 -0.106296
vn -0.000000 0.986796 -0.161969
vn -0.000000 0.986796 -0.161968
vn -1.000000 -0.000003 0.000000
vn -1.000000 0.000001 -0.000001
vn -0.000000 -0.000001 1.000000
vn 0.000000 1.000000 0.000000
vn 0.000000 0.447214 -0.894427
vn 0.000000 0.447213 -0.894427
vn 0.842062 0.509520 -0.176978
vn 0.707107 0.707107 0.000000
vn -0.000000 0.447214 0.894427
vn 0.842062 0.509520 0.176979
vn 0.398680 -0.872365 0.282904
vn 0.699425 -0.699425 0.147000
vn -0.000000 -0.447214 0.894427
vn 0.398680 -0.872365 -0.282903
vn 0.699425 -0.699425 -0.147000
vn 0.000000 -0.447214 -0.894427
vn 0.000000 -0.447213 -0.894427
vn 0.000000 0.987256 -0.159139
vn -0.123908 0.992294 -0.000000
vn 0.415479 0.909603 0.000000
vn 0.673333 0.564210 -0.477797
vn -0.000000 0.987256 0.159139
vn 0.673331 0.564212 0.477797
vn 0.067608 -0.946513 0.315504
vn 1.000000 -0.000001 0.000001
vn 0.067608 0.946513 -0.315504
vn 0.000000 0.774067 -0.633104
vn 0.000000 0.774067 -0.633103
vn 0.000000 -0.774067 -0.633104
vn 0.000001 0.774067 -0.633104
vn 0.000000 -0.774066 -0.633104
vn -0.230769 -0.923077 -0.307692
vn -0.600000 0.000000 -0.800000
vn -0.242536 -0.970142 0.000000
vn -0.600000 -0.000001 -0.800000
vn -0.230769 0.923077 -0.307692
vn -0.242536 0.970142 -0.000000
vn -1.000000 0.000002 -0.000002
vn -0.230769 -0.923077 0.307692
vn -0.600000 0.000000 0.800000
vn -0.600000 -0.000002 0.800000
vn -1.000000 -0.000005 -0.000002
vn -0.230769 0.923077 0.307692
vn -0.000000 -0.774067 0.633104
vn -0.000000 0.774067 0.633104
vn -0.000000 0.774066 0.633105
vn -0.000001 -0.774067 0.633103
vn -0.000001 0.774067 0.633104
vn 0.209529 -0.000000 0.977802
vn 0.071247 -0.997459 0.000000
vn 0.209529 -0.000001 0.977802
vn 0.067608 0.946513 0.315504
vn 0.071247 0.997459 -0.000000
vn 0.067608 -0.946513 -0.315504
vn 0.209529 0.000000 -0.977802
vn 0.209529 0.000001 -0.977802
vn -0.000000 0.990898 0.134614
vn 0.000000 0.990898 -0.134614
vn 0.000000 -0.990898 -0.134614
vn 0.000000 -1.000000 0.000000
vn -0.000000 -0.990898 0.134614
usemtl None_carrier_tex_1.tga
s off
f 108/1/1 121/2/1 115/3/1
f 115/4/2 121/5/2 119/6/2
f 119/6/3 121/5/3 122/7/3
f 113/8/3 119/6/3 122/7/3
f 110/9/4 113/10/4 122/11/4
f 98/12/5 110/9/5 122/11/5
f 98/13/6 122/14/6 104/15/6
f 104/15/6 122/14/6 121/16/6
f 100/17/7 104/15/7 121/16/7
f 100/18/8 121/2/8 108/1/8
f 125/19/9 17/20/9 42/21/9
f 85/22/9 125/19/9 42/21/9
f 125/19/10 62/23/10 17/20/10
f 126/24/11 41/25/11 17/20/11
f 62/23/12 126/24/12 17/20/12
f 126/24/9 86/26/9 41/25/9
f 127/27/10 46/28/10 19/29/10
f 64/30/10 127/27/10 19/29/10
f 127/27/10 87/31/10 46/28/10
f 128/32/10 19/29/10 45/33/10
f 88/34/10 128/32/10 45/33/10
f 128/32/10 64/30/10 19/29/10
f 131/35/13 18/36/13 43/37/13
f 93/38/14 131/35/14 43/37/14
f 131/35/13 70/39/13 18/36/13
f 132/40/15 44/41/15 18/36/15
f 70/39/13 132/40/13 18/36/13
f 132/40/15 94/42/15 44/41/15
f 133/43/13 47/44/13 20/45/13
f 72/46/13 133/43/13 20/45/13
f 133/43/14 95/47/14 47/44/14
f 134/48/13 20/45/13 48/49/13
f 96/50/14 134/48/14 48/49/14
f 134/48/14 72/46/14 20/45/14
f 64/30/10 128/32/10 124/51/10
f 64/30/10 123/52/10 127/27/10
f 22/53/16 123/54/16 64/55/16
f 22/56/17 64/57/17 124/58/17
f 22/56/18 124/58/18 62/59/18
f 62/23/19 124/51/19 126/24/19
f 62/23/11 125/19/11 123/52/11
f 22/53/20 62/60/20 123/54/20
f 70/39/13 130/61/13 132/40/13
f 24/62/21 130/63/21 70/64/21
f 24/62/22 72/65/22 130/63/22
f 72/46/14 134/48/14 130/61/14
f 72/46/13 129/66/13 133/43/13
f 24/67/23 129/68/23 72/69/23
f 24/67/24 70/70/24 129/68/24
f 70/39/13 131/35/13 129/66/13
f 141/71/25 89/72/25 137/73/25
f 141/71/25 66/74/25 89/72/25
f 141/71/26 138/75/26 90/76/26
f 66/74/27 141/71/27 90/76/27
f 142/77/28 139/78/28 91/79/28
f 68/80/28 142/77/28 91/79/28
f 142/77/28 92/81/28 140/82/28
f 142/77/28 68/80/28 92/81/28
f 135/83/29 143/84/29 137/85/29
f 143/86/30 141/87/30 137/88/30
f 141/87/30 144/89/30 138/90/30
f 144/91/31 136/92/31 138/93/31
f 142/94/32 145/95/32 139/96/32
f 145/97/33 135/83/33 139/98/33
f 136/92/34 146/99/34 140/100/34
f 146/101/32 142/94/32 140/102/32
f 136/92/35 144/91/35 146/99/35
f 23/103/36 146/104/36 144/105/36
f 23/103/28 145/106/28 146/104/28
f 142/94/32 146/101/32 145/95/32
f 23/103/37 143/107/37 145/106/37
f 135/83/38 145/97/38 143/84/38
f 23/103/39 144/105/39 143/107/39
f 141/87/30 143/86/30 144/89/30
f 211/108/40 179/109/40 180/110/40
f 211/108/41 180/110/41 181/111/41
f 211/108/40 181/111/40 182/112/40
f 211/108/40 182/112/40 183/113/40
f 211/108/40 183/113/40 184/114/40
f 211/108/42 184/114/42 185/115/42
f 211/108/42 185/115/42 186/116/42
f 211/108/41 186/116/41 187/117/41
f 211/108/43 187/117/43 188/118/43
f 211/108/44 188/118/44 189/119/44
f 211/108/41 189/119/41 190/120/41
f 211/108/41 190/120/41 191/121/41
f 211/108/41 191/121/41 192/122/41
f 211/108/45 192/122/45 193/123/45
f 211/108/46 193/123/46 194/124/46
f 211/108/47 194/124/47 195/125/47
f 211/108/48 195/125/48 196/126/48
f 211/108/40 196/126/40 197/127/40
f 211/108/48 197/127/48 198/128/48
f 211/108/48 198/128/48 199/129/48
f 211/108/48 199/129/48 200/130/48
f 211/108/49 200/130/49 201/131/49
f 211/108/49 201/131/49 202/132/49
f 211/108/41 202/132/41 203/133/41
f 211/108/41 203/133/41 204/134/41
f 211/108/50 204/134/50 205/135/50
f 211/108/41 205/135/41 206/136/41
f 211/108/41 206/136/41 207/137/41
f 211/108/41 207/137/41 208/138/41
f 211/108/45 208/138/45 209/139/45
f 211/108/51 209/139/51 210/140/51
f 211/108/52 210/140/52 179/109/52
f 178/141/53 243/142/53 212/143/53
f 178/141/54 212/143/54 147/144/54
f 177/145/55 242/146/55 178/147/55
f 242/146/56 243/148/56 178/147/56
f 176/149/57 241/150/57 242/151/57
f 176/149/58 242/151/58 177/152/58
f 175/153/59 240/154/59 241/150/59
f 175/153/60 241/150/60 176/149/60
f 174/155/61 239/156/61 175/153/61
f 239/156/62 240/154/62 175/153/62
f 173/157/63 238/158/63 174/155/63
f 238/158/64 239/156/64 174/155/64
f 172/159/65 237/160/65 238/161/65
f 172/159/66 238/161/66 173/162/66
f 171/163/67 236/164/67 172/165/67
f 236/164/68 237/166/68 172/165/68
f 170/167/69 235/168/69 171/163/69
f 235/168/70 236/164/70 171/163/70
f 169/169/71 234/170/71 170/167/71
f 234/170/72 235/168/72 170/167/72
f 168/171/73 233/172/73 169/169/73
f 233/172/74 234/170/74 169/169/74
f 167/173/75 232/174/75 168/171/75
f 232/174/76 233/172/76 168/171/76
f 166/175/77 231/176/77 232/174/77
f 166/175/78 232/174/78 167/173/78
f 165/177/79 230/178/79 231/176/79
f 165/177/80 231/176/80 166/175/80
f 164/179/81 229/180/81 230/178/81
f 164/179/82 230/178/82 165/177/82
f 163/181/83 228/182/83 229/180/83
f 163/181/84 229/180/84 164/179/84
f 162/183/85 227/184/85 228/182/85
f 162/183/86 228/182/86 163/181/86
f 161/185/87 226/186/87 162/187/87
f 226/186/88 227/188/88 162/187/88
f 160/189/89 225/190/89 226/191/89
f 160/189/90 226/191/90 161/192/90
f 159/193/91 224/194/91 225/190/91
f 159/193/92 225/190/92 160/189/92
f 158/195/93 223/196/93 159/193/93
f 223/196/94 224/194/94 159/193/94
f 157/197/95 222/198/95 158/195/95
f 222/198/96 223/196/96 158/195/96
f 156/199/97 221/200/97 222/201/97
f 156/199/98 222/201/98 157/202/98
f 155/203/99 220/204/99 156/205/99
f 220/204/100 221/206/100 156/205/100
f 154/207/101 219/208/101 155/203/101
f 219/208/102 220/204/102 155/203/102
f 153/209/103 218/210/103 154/207/103
f 218/210/104 219/208/104 154/207/104
f 152/211/105 217/212/105 153/209/105
f 217/212/106 218/210/106 153/209/106
f 151/213/107 216/214/107 152/211/107
f 216/214/108 217/212/108 152/211/108
f 150/215/109 215/216/109 216/214/109
f 150/215/110 216/214/110 151/213/110
f 149/217/111 214/218/111 215/216/111
f 149/217/112 215/216/112 150/215/112
f 148/219/113 213/220/113 214/218/113
f 148/219/114 214/218/114 149/217/114
f 147/144/115 212/143/115 213/220/115
f 147/144/116 213/220/116 148/219/116
f 179/221/117 210/222/117 178/141/117
f 179/221/118 178/141/118 147/144/118
f 177/223/119 178/141/119 210/222/119
f 177/223/120 210/222/120 209/224/120
f 176/225/121 177/223/121 208/226/121
f 177/223/122 209/224/122 208/226/122
f 175/153/123 176/149/123 208/227/123
f 175/153/124 208/227/124 207/228/124
f 174/155/125 175/153/125 207/228/125
f 174/155/126 207/228/126 206/229/126
f 173/230/127 174/231/127 206/232/127
f 173/230/128 206/232/128 205/233/128
f 172/165/129 173/230/129 205/233/129
f 172/165/130 205/233/130 204/234/130
f 171/163/131 172/165/131 204/234/131
f 171/163/132 204/234/132 203/235/132
f 170/167/133 171/163/133 203/235/133
f 170/167/134 203/235/134 202/236/134
f 169/169/135 170/167/135 201/237/135
f 170/167/136 202/236/136 201/237/136
f 168/171/137 169/169/137 201/237/137
f 168/171/138 201/237/138 200/238/138
f 167/173/139 168/171/139 200/238/139
f 167/173/140 200/238/140 199/239/140
f 166/175/141 167/173/141 199/239/141
f 166/175/141 199/239/141 198/240/141
f 165/177/142 166/175/142 198/240/142
f 165/177/143 198/240/143 197/241/143
f 164/179/144 165/177/144 197/241/144
f 164/179/145 197/241/145 196/242/145
f 163/181/146 164/179/146 196/242/146
f 163/181/147 196/242/147 195/243/147
f 162/183/148 163/181/148 195/243/148
f 162/183/149 195/243/149 194/244/149
f 161/245/150 162/183/150 194/244/150
f 161/245/151 194/244/151 193/246/151
f 160/247/152 161/245/152 193/246/152
f 160/247/153 193/246/153 192/248/153
f 159/193/154 160/189/154 192/249/154
f 159/193/155 192/249/155 191/250/155
f 158/195/156 159/193/156 191/250/156
f 158/195/157 191/250/157 190/251/157
f 157/252/158 158/253/158 190/254/158
f 157/252/159 190/254/159 189/255/159
f 156/205/160 157/252/160 188/256/160
f 157/252/160 189/255/160 188/256/160
f 155/203/161 156/205/161 188/256/161
f 155/203/161 188/256/161 187/257/161
f 154/207/162 155/203/162 187/257/162
f 154/207/163 187/257/163 186/258/163
f 153/209/164 154/207/164 186/258/164
f 153/209/165 186/258/165 185/259/165
f 152/211/166 153/209/166 185/259/166
f 152/211/166 185/259/166 184/260/166
f 151/213/167 152/211/167 183/261/167
f 152/211/168 184/260/168 183/261/168
f 150/215/169 151/213/169 182/262/169
f 151/213/169 183/261/169 182/262/169
f 149/217/170 150/215/170 182/262/170
f 149/217/170 182/262/170 181/263/170
f 148/219/171 149/217/171 181/263/171
f 148/219/172 181/263/172 180/264/172
f 147/144/173 148/219/173 180/264/173
f 147/144/174 180/264/174 179/221/174
f 67/265/28 136/266/28 140/82/28
f 67/265/28 140/82/28 92/81/28
f 91/79/28 139/78/28 65/267/28
f 139/78/28 135/268/28 65/267/28
f 90/76/175 138/75/175 67/265/175
f 138/75/39 136/266/39 67/265/39
f 65/267/39 135/268/39 137/73/39
f 65/267/176 137/73/176 89/72/176
f 71/269/14 130/61/14 134/48/14
f 71/269/14 134/48/14 96/50/14
f 129/66/13 69/270/13 133/43/13
f 69/270/14 95/47/14 133/43/14
f 94/42/13 132/40/13 71/269/13
f 132/40/14 130/61/14 71/269/14
f 131/35/14 93/38/14 69/270/14
f 131/35/13 69/270/13 129/66/13
f 63/271/10 124/51/10 128/32/10
f 63/271/10 128/32/10 88/34/10
f 123/52/10 61/272/10 127/27/10
f 61/272/10 87/31/10 127/27/10
f 86/26/177 126/24/177 63/271/177
f 126/24/10 124/51/10 63/271/10
f 125/19/9 85/22/9 61/272/9
f 125/19/11 61/272/11 123/52/11
f 117/273/178 120/274/178 112/275/178
f 120/274/178 116/276/178 112/275/178
f 120/274/178 119/6/178 116/276/178
f 119/6/178 113/8/178 116/276/178
f 114/277/178 118/278/178 117/273/178
f 118/278/178 120/274/178 117/273/178
f 118/278/178 115/4/178 120/274/178
f 115/4/178 119/6/178 120/274/178
f 105/279/179 108/1/179 118/280/179
f 108/1/180 115/3/180 118/280/180
f 109/281/179 105/279/179 114/282/179
f 105/279/179 118/280/179 114/282/179
f 106/283/181 109/284/181 114/277/181
f 106/283/182 114/277/182 117/273/182
f 110/9/183 107/285/183 116/286/183
f 110/9/183 116/286/183 113/10/183
f 107/285/183 111/287/183 112/288/183
f 107/285/183 112/288/183 116/286/183
f 111/289/184 106/283/184 112/275/184
f 106/283/182 117/273/182 112/275/182
f 97/290/185 102/291/185 111/292/185
f 102/291/186 106/293/186 111/292/186
f 101/294/187 97/295/187 107/285/187
f 97/295/187 111/287/187 107/285/187
f 98/12/187 101/294/187 110/9/187
f 101/294/187 107/285/187 110/9/187
f 102/291/188 99/296/188 109/297/188
f 102/291/189 109/297/189 106/293/189
f 99/298/190 103/299/190 105/279/190
f 99/298/190 105/279/190 109/281/190
f 103/299/191 100/18/191 108/1/191
f 103/299/190 108/1/190 105/279/190
f 54/300/192 77/301/192 100/302/192
f 54/300/192 100/302/192 103/303/192
f 77/301/193 53/304/193 100/302/193
f 53/304/193 104/305/193 100/302/193
f 78/306/192 54/300/192 99/307/192
f 54/300/192 103/303/192 99/307/192
f 55/308/194 78/306/194 99/307/194
f 55/308/195 99/307/195 102/309/195
f 53/304/193 79/310/193 98/311/193
f 53/304/193 98/311/193 104/305/193
f 79/310/196 56/312/196 98/311/196
f 56/312/196 101/313/196 98/311/196
f 56/312/196 80/314/196 97/315/196
f 56/312/196 97/315/196 101/313/196
f 80/314/194 55/308/194 97/315/194
f 55/308/197 102/309/197 97/315/197
f 2/316/43 28/317/43 41/318/43
f 28/317/198 84/319/198 41/318/198
f 5/320/199 33/321/199 44/322/199
f 33/321/200 81/323/200 44/322/200
f 40/324/201 96/325/201 8/326/201
f 96/325/202 48/327/202 8/326/202
f 16/328/201 71/329/201 40/324/201
f 71/329/201 96/325/201 40/324/201
f 95/330/203 30/331/203 4/332/203
f 95/330/203 4/332/203 47/333/203
f 69/334/203 11/335/203 30/331/203
f 69/334/203 30/331/203 95/330/203
f 39/336/201 94/337/201 16/328/201
f 94/337/201 71/329/201 16/328/201
f 5/320/204 44/322/204 39/336/204
f 44/322/204 94/337/204 39/336/204
f 93/338/203 29/339/203 11/335/203
f 93/338/205 11/335/205 69/334/205
f 43/340/203 1/341/203 29/339/203
f 43/340/203 29/339/203 93/338/203
f 32/342/206 92/343/206 47/333/206
f 32/342/28 47/333/28 4/332/28
f 92/344/207 68/345/207 20/45/207
f 92/344/207 20/45/207 47/44/207
f 12/346/208 67/347/208 92/343/208
f 12/346/208 92/343/208 32/342/208
f 68/345/207 91/348/207 48/49/207
f 68/345/209 48/49/209 20/45/209
f 91/349/210 38/350/210 48/327/210
f 38/350/28 8/326/28 48/327/28
f 65/351/211 15/352/211 91/349/211
f 15/352/211 38/350/211 91/349/211
f 31/353/208 90/354/208 67/347/208
f 31/353/208 67/347/208 12/346/208
f 3/355/212 45/356/212 31/353/212
f 45/356/213 90/354/213 31/353/213
f 45/33/214 19/29/214 90/357/214
f 19/29/215 66/358/215 90/357/215
f 89/359/211 37/360/211 65/351/211
f 37/360/211 15/352/211 65/351/211
f 19/29/214 46/28/214 89/361/214
f 19/29/214 89/361/214 66/358/214
f 46/362/216 7/363/216 37/360/216
f 46/362/217 37/360/217 89/359/217
f 26/364/218 88/365/218 45/356/218
f 26/364/218 45/356/218 3/355/218
f 9/366/218 63/367/218 26/364/218
f 63/367/218 88/365/218 26/364/218
f 87/368/219 36/369/219 46/362/219
f 36/369/219 7/363/219 46/362/219
f 61/370/220 14/371/220 87/368/220
f 14/371/219 36/369/219 87/368/219
f 25/372/218 86/373/218 9/366/218
f 86/373/218 63/367/218 9/366/218
f 2/316/221 41/318/221 86/373/221
f 2/316/218 86/373/218 25/372/218
f 85/374/222 35/375/222 61/370/222
f 35/375/220 14/371/220 61/370/220
f 42/376/222 6/377/222 85/374/222
f 6/377/222 35/375/222 85/374/222
f 84/378/223 60/379/223 41/25/223
f 60/379/223 17/20/223 41/25/223
f 10/380/224 59/381/224 84/319/224
f 10/380/224 84/319/224 28/317/224
f 60/379/225 83/344/225 17/20/225
f 83/344/225 42/21/225 17/20/225
f 83/382/226 34/383/226 42/376/226
f 34/383/43 6/377/43 42/376/43
f 57/384/227 13/385/227 83/382/227
f 13/385/227 34/383/227 83/382/227
f 27/386/224 82/387/224 59/381/224
f 27/386/224 59/381/224 10/380/224
f 1/341/41 43/340/41 27/386/41
f 43/340/228 82/387/228 27/386/228
f 43/37/229 18/36/229 58/388/229
f 43/37/230 58/388/230 82/389/230
f 81/323/227 33/321/227 13/385/227
f 81/323/227 13/385/227 57/384/227
f 18/36/229 44/41/229 58/388/229
f 44/41/230 81/390/230 58/388/230
f 34/383/231 80/314/231 35/375/231
f 34/383/231 35/375/231 6/377/231
f 80/314/231 56/312/231 35/375/231
f 56/312/231 14/371/231 35/375/231
f 13/385/178 55/308/178 80/314/178
f 13/385/178 80/314/178 34/383/178
f 56/312/231 79/310/231 14/371/231
f 79/310/231 36/369/231 14/371/231
f 79/310/231 37/360/231 36/369/231
f 37/360/231 7/363/231 36/369/231
f 53/304/178 15/352/178 37/360/178
f 53/304/178 37/360/178 79/310/178
f 33/321/178 78/306/178 55/308/178
f 33/321/178 55/308/178 13/385/178
f 5/320/232 39/336/232 78/306/232
f 5/320/232 78/306/232 33/321/232
f 39/336/232 16/328/232 78/306/232
f 16/328/232 54/300/232 78/306/232
f 77/301/178 38/350/178 53/304/178
f 38/350/178 15/352/178 53/304/178
f 16/328/232 40/324/232 54/300/232
f 40/324/232 77/301/232 54/300/232
f 40/324/232 8/326/232 77/301/232
f 8/326/232 38/350/232 77/301/232
f 30/331/233 76/391/233 4/332/233
f 76/391/233 32/342/233 4/332/233
f 76/391/234 52/392/234 32/342/234
f 52/392/234 12/346/234 32/342/234
f 11/335/233 51/393/233 30/331/233
f 51/393/233 76/391/233 30/331/233
f 51/393/234 21/394/234 76/391/234
f 21/394/234 52/392/234 76/391/234
f 52/392/234 75/395/234 31/353/234
f 52/392/234 31/353/234 12/346/234
f 75/395/235 26/364/235 31/353/235
f 26/364/235 3/355/235 31/353/235
f 21/394/234 49/396/234 75/395/234
f 21/394/234 75/395/234 52/392/234
f 49/396/235 9/366/235 75/395/235
f 9/366/235 26/364/235 75/395/235
f 29/339/233 74/397/233 51/393/233
f 29/339/233 51/393/233 11/335/233
f 74/397/234 50/398/234 21/394/234
f 74/397/234 21/394/234 51/393/234
f 1/341/233 27/386/233 74/397/233
f 1/341/233 74/397/233 29/339/233
f 27/386/234 10/380/234 50/398/234
f 27/386/234 50/398/234 74/397/234
f 50/398/234 73/399/234 49/396/234
f 50/398/234 49/396/234 21/394/234
f 73/399/235 25/372/235 9/366/235
f 73/399/235 9/366/235 49/396/235
f 10/380/234 28/317/234 73/399/234
f 10/380/234 73/399/234 50/398/234
f 28/317/235 2/316/235 25/372/235
f 28/317/235 25/372/235 73/399/235
